Feb9HW3
…
Let us make sure that everything looks correct

charteventsprint <- chartevents.filtered.arrow %>%
head(50) %>%
collect()

print(charteventsprint)

# A tibble: 50 × 4
   subject_id itemid charttime           valuenum
        <int>  <int> <dttm>                 <dbl>
 1   10063848 220045 2177-07-29 14:00:00       93
 2   10063848 220210 2177-07-29 14:00:00       23
 3   10063848 220179 2177-07-29 14:02:00       97
 4   10063848 220181 2177-07-29 14:02:00       65
 5   10063848 220045 2177-07-27 12:00:00      153
 6   10063848 220210 2177-07-27 12:00:00       25
 7   10063848 220179 2177-07-27 12:02:00      129
 8   10063848 220181 2177-07-27 12:02:00       89
 9   10063848 220045 2177-07-27 13:00:00       97
10   10063848 220210 2177-07-27 13:00:00       28
# ℹ 40 more rows
…
Warning: Values from `valuenum` are not uniquely identified; output will contain
list-cols.
• Use `values_fn = list` to suppress this warning.
• Use `values_fn = {summary_fun}` to summarise duplicates.
• Use the following dplyr code to identify duplicates.
  {data} |>
  dplyr::summarise(n = dplyr::n(), .by = c(subject_id, stay_id, itemid)) |>
  dplyr::filter(n > 1L)

labevents_tble

# A tibble: 88,086 × 10
   subject_id  stay_id `50882`   `50902` `50912` `50931` `50971` `50983` `51221`
        <int>    <int> <list>    <list>  <list>  <list>  <list>  <list>  <list> 
 1   10000032 39553978 <dbl [1]> <dbl>   <dbl>   <dbl>   <dbl>   <dbl>   <dbl>  
 2   10000690 37081114 <dbl [1]> <dbl>   <dbl>   <dbl>   <dbl>   <dbl>   <dbl>  
 3   10000980 39765666 <dbl [1]> <dbl>   <dbl>   <dbl>   <dbl>   <dbl>   <dbl>  
 4   10001217 34592300 <dbl [1]> <dbl>   <dbl>   <dbl>   <dbl>   <dbl>   <dbl>  
 5   10001217 37067082 <dbl [1]> <dbl>   <dbl>   <dbl>   <dbl>   <dbl>   <dbl>  
 6   10001725 31205490 <NULL>    <dbl>   <NULL>  <NULL>  <dbl>   <dbl>   <NULL> 
 7   10001843 39698942 <dbl [1]> <dbl>   <dbl>   <dbl>   <dbl>   <dbl>   <dbl>  
 8   10001884 37510196 <dbl [1]> <dbl>   <dbl>   <dbl>   <dbl>   <dbl>   <dbl>  
 9   10002013 39060235 <dbl [1]> <dbl>   <dbl>   <dbl>   <dbl>   <dbl>   <dbl>  
10   10002114 34672098 <dbl [1]> <dbl>   <dbl>   <dbl>   <dbl>   <dbl>   <dbl>  
# ℹ 88,076 more rows
# ℹ 1 more variable: `51301` <list>
…
labevents_tble <- labevents_tble %>%
  rename_with(~ column_names[.x], .cols = names(column_names))

Viewing the table

labevents_tble

# A tibble: 88,086 × 10
   subject_id  stay_id Bicarbonate Chloride Creatinine Glucose Potassium Sodium
        <int>    <int>       <dbl>    <dbl>      <dbl>   <dbl>     <dbl>  <dbl>
 1   10000032 39553978          25       95        0.7     102       6.7    126
 2   10000690 37081114          26      100        1        85       4.8    137
 3   10000980 39765666          21      109        2.3      89       3.9    144
 4   10001217 34592300          30      104        0.5      87       4.1    142
 5   10001217 37067082          22      108        0.6     112       4.2    142
 6   10001725 31205490          NA       98       NA        NA       4.1    139
 7   10001843 39698942          28       97        1.3     131       3.9    138
 8   10001884 37510196          30       88        1.1     141       4.5    130
 9   10002013 39060235          24      102        0.9     288       3.5    137
10   10002114 34672098          18       NA        3.1      95       6.5    125
# ℹ 88,076 more rows
# ℹ 2 more variables: Hematocrit <dbl>, WBC <dbl>
…
Conduct an inner_join of the values from the “subject_id”, “stay_id”, and the “hadm_id”. Hadm_id was used to avoid two 

chartevents_icu <- chartevents_filtered %>%
  collect() %>%
  left_join(icustays_tble, by = c("subject_id", "stay_id")) %>%
  filter(storetime >= intime & storetime <= outtime)

View the data table created

chartevents_icu

# A tibble: 30,118,451 × 12
   subject_id itemid charttime           valuenum  stay_id storetime          
        <int>  <int> <dttm>                 <dbl>    <int> <dttm>             
 1   10001884 220045 2131-01-14 23:00:00     74   37510196 2131-01-15 00:32:00
 2   10001884 220210 2131-01-14 23:00:00     26   37510196 2131-01-15 00:32:00
 3   10001884 220179 2131-01-14 23:01:00    122   37510196 2131-01-15 00:32:00
 4   10001884 220180 2131-01-14 23:01:00     79   37510196 2131-01-15 00:32:00
 5   10001884 220045 2131-01-15 00:00:00     74   37510196 2131-01-15 00:32:00
 6   10001884 220210 2131-01-15 00:00:00     25   37510196 2131-01-15 00:32:00
 7   10001884 223761 2131-01-15 00:00:00     99.5 37510196 2131-01-15 00:32:00
 8   10001884 220179 2131-01-15 00:01:00    121   37510196 2131-01-15 00:32:00
 9   10001884 220180 2131-01-15 00:01:00     74   37510196 2131-01-15 00:32:00
10   10001884 220045 2131-01-15 01:00:00     70   37510196 2131-01-15 01:10:00
# ℹ 30,118,441 more rows
# ℹ 6 more variables: hadm_id <int>, first_careunit <chr>, last_careunit <chr>,
#   intime <dttm>, outtime <dttm>, los <dbl>
We need to arrange the values, then group them, and then get the first vital measurement (by storetime) within the ICU stay.

chartevents_icu_first <- chartevents_icu %>%
  arrange(subject_id, stay_id, itemid, storetime) 

chartevents_icu_second <- chartevents_icu_first %>%
  group_by(subject_id, stay_id, itemid, storetime) %>%
  summarise(valuenum = mean(valuenum, na.rm = TRUE), .groups = "drop") %>%  
  group_by(subject_id, stay_id, itemid) %>% 
  slice(1) %>%  
  ungroup()

chartevents_icu_second

# A tibble: 467,516 × 5
   subject_id  stay_id itemid storetime           valuenum
        <int>    <int>  <int> <dttm>                 <dbl>
 1   10000032 39553978 220045 2180-07-23 07:17:00     91  
 2   10000032 39553978 220179 2180-07-23 07:17:00     84  
 3   10000032 39553978 220180 2180-07-23 07:17:00     48  
 4   10000032 39553978 220210 2180-07-23 07:17:00     24  
 5   10000032 39553978 223761 2180-07-23 07:20:00     98.7
 6   10000690 37081114 220045 2150-11-02 12:12:00     78  
 7   10000690 37081114 220179 2150-11-02 12:12:00    106  
 8   10000690 37081114 220180 2150-11-02 12:12:00     56.5
 9   10000690 37081114 220210 2150-11-02 12:12:00     24.3
10   10000690 37081114 223761 2150-11-02 12:12:00     97.7
# ℹ 467,506 more rows

This is changing the format to be more representative of what is seen in Q6

chartevents_pivot <- chartevents_icu_second %>%
  select(subject_id, stay_id, itemid, valuenum) %>%
  pivot_wider(names_from = itemid, values_from = valuenum)

chartevents_pivot

# A tibble: 94,363 × 7
   subject_id  stay_id `220045` `220179` `220180` `220210` `223761`
        <int>    <int>    <dbl>    <dbl>    <dbl>    <dbl>    <dbl>
 1   10000032 39553978     91       84       48       24       98.7
 2   10000690 37081114     78      106       56.5     24.3     97.7
 3   10000980 39765666     76      154      102       23.5     98  
 4   10001217 34592300     79.3    156       93.3     14       97.6
 5   10001217 37067082     86      151       90       18       98.5
 6   10001725 31205490     86       73       56       19       97.7
 7   10001843 39698942    124.     110       78       16.5     97.9
 8   10001884 37510196     49      174.      30.5     13       98.1
 9   10002013 39060235     80       98.5     62       14       97.2
10   10002114 34672098    110.     112       80       21       97.9
# ℹ 94,353 more rows

Changing the column names to be more exact

chartevents_pivot <- chartevents_pivot %>%
  rename(
    Heart_Rate = "220045",
    SysBP = "220179",
    DiaBP = "220180",
    Temp = "223761",
    Respiratory_Rate = "220210"
  )

chartevents_pivot

# A tibble: 94,363 × 7
   subject_id  stay_id Heart_Rate SysBP DiaBP Respiratory_Rate  Temp
        <int>    <int>      <dbl> <dbl> <dbl>            <dbl> <dbl>
 1   10000032 39553978       91    84    48               24    98.7
 2   10000690 37081114       78   106    56.5             24.3  97.7
 3   10000980 39765666       76   154   102               23.5  98  
 4   10001217 34592300       79.3 156    93.3             14    97.6
 5   10001217 37067082       86   151    90               18    98.5
 6   10001725 31205490       86    73    56               19    97.7
 7   10001843 39698942      124.  110    78               16.5  97.9
 8   10001884 37510196       49   174.   30.5             13    98.1
 9   10002013 39060235       80    98.5  62               14    97.2
10   10002114 34672098      110.  112    80               21    97.9
# ℹ 94,353 more rows
…
Now that we have modified the tables, we need to merge them

mimic_icu_cohort <- icu_adults %>%
  left_join(labevents_tble, by = c("subject_id", "stay_id")) %>%
  left_join(chartevents_pivot, by = c("subject_id", "stay_id"))

print(mimic_icu_cohort)

# A tibble: 94,458 × 41
   subject_id  hadm_id  stay_id first_careunit last_careunit intime             
        <int>    <int>    <int> <chr>          <chr>         <dttm>             
 1   10000032 29079034 39553978 Medical Inten… Medical Inte… 2180-07-23 07:00:00
 2   10000690 25860671 37081114 Medical Inten… Medical Inte… 2150-11-02 11:37:00
 3   10000980 26913865 39765666 Medical Inten… Medical Inte… 2189-06-27 01:42:00
 4   10001217 24597018 37067082 Surgical Inte… Surgical Int… 2157-11-20 11:18:02
 5   10001217 27703517 34592300 Surgical Inte… Surgical Int… 2157-12-19 07:42:24
 6   10001725 25563031 31205490 Medical/Surgi… Medical/Surg… 2110-04-11 08:52:22
 7   10001843 26133978 39698942 Medical/Surgi… Medical/Surg… 2134-12-05 10:50:03
 8   10001884 26184834 37510196 Medical Inten… Medical Inte… 2131-01-10 20:20:05
 9   10002013 23581541 39060235 Cardiac Vascu… Cardiac Vasc… 2160-05-18 03:00:53
10   10002114 27793700 34672098 Coronary Care… Coronary Car… 2162-02-17 15:30:00
# ℹ 94,448 more rows
# ℹ 35 more variables: outtime <dttm>, los <dbl>, admittime <dttm>,
#   dischtime <dttm>, deathtime <dttm>, admission_type <chr>,
#   admit_provider_id <chr>, admission_location <chr>,
#   discharge_location <chr>, insurance <chr>, language <chr>,
#   marital_status <chr>, race <chr>, edregtime <dttm>, edouttime <dttm>,
#   hospital_expire_flag <int>, length_of_stay <drtn>, gender <fct>, …
…
#Q8 Exploratory data analysis (EDA)

Summarize the following information about the ICU stay cohort mimic_icu_cohort using appropriate numerics or graphs:

Length of ICU stay los vs demographic variables (race, insurance, marital_status, gender, age at intime)

First, let us make the length of stay a numeric value

mimic_icu_cohort <- mimic_icu_cohort %>%
  mutate(los = as.numeric(los))

mimic_icu_cohort

# A tibble: 94,458 × 41
   subject_id  hadm_id  stay_id first_careunit last_careunit intime             
        <int>    <int>    <int> <chr>          <chr>         <dttm>             
 1   10000032 29079034 39553978 Medical Inten… Medical Inte… 2180-07-23 07:00:00
 2   10000690 25860671 37081114 Medical Inten… Medical Inte… 2150-11-02 11:37:00
 3   10000980 26913865 39765666 Medical Inten… Medical Inte… 2189-06-27 01:42:00
 4   10001217 24597018 37067082 Surgical Inte… Surgical Int… 2157-11-20 11:18:02
 5   10001217 27703517 34592300 Surgical Inte… Surgical Int… 2157-12-19 07:42:24
 6   10001725 25563031 31205490 Medical/Surgi… Medical/Surg… 2110-04-11 08:52:22
 7   10001843 26133978 39698942 Medical/Surgi… Medical/Surg… 2134-12-05 10:50:03
 8   10001884 26184834 37510196 Medical Inten… Medical Inte… 2131-01-10 20:20:05
 9   10002013 23581541 39060235 Cardiac Vascu… Cardiac Vasc… 2160-05-18 03:00:53
10   10002114 27793700 34672098 Coronary Care… Coronary Car… 2162-02-17 15:30:00
# ℹ 94,448 more rows
# ℹ 35 more variables: outtime <dttm>, los <dbl>, admittime <dttm>,
#   dischtime <dttm>, deathtime <dttm>, admission_type <chr>,
#   admit_provider_id <chr>, admission_location <chr>,
#   discharge_location <chr>, insurance <chr>, language <chr>,
#   marital_status <chr>, race <chr>, edregtime <dttm>, edouttime <dttm>,
#   hospital_expire_flag <int>, length_of_stay <drtn>, gender <fct>, …
…
