Biostat 203B Homework 5
…
Engine-Specific Arguments:
  standardize = TRUE

Computational engine: glmnet 

param_grid <- grid_regular(
  penalty(range = c(-6, 3)),   # log10 scale
  mixture(),
  levels = c(100, 5)
) %>% 
  print()

# A tibble: 500 × 2
      penalty mixture
        <dbl>   <dbl>
 1 0.000001         0
 2 0.00000123       0
 3 0.00000152       0
 4 0.00000187       0
 5 0.00000231       0
 6 0.00000285       0
 7 0.00000351       0
 8 0.00000433       0
 9 0.00000534       0
10 0.00000658       0
# ℹ 490 more rows
…
logit_tune_roc <- logit_tune |>
  collect_metrics() |>
  filter(.metric == "roc_auc")

logit_tune_roc

# A tibble: 500 × 8
      penalty mixture .metric .estimator  mean     n std_err .config            
        <dbl>   <dbl> <chr>   <chr>      <dbl> <int>   <dbl> <chr>              
 1 0.000001         0 roc_auc binary     0.608     3 0.00378 Preprocessor1_Mode…
 2 0.00000123       0 roc_auc binary     0.608     3 0.00378 Preprocessor1_Mode…
 3 0.00000152       0 roc_auc binary     0.608     3 0.00378 Preprocessor1_Mode…
 4 0.00000187       0 roc_auc binary     0.608     3 0.00378 Preprocessor1_Mode…
 5 0.00000231       0 roc_auc binary     0.608     3 0.00378 Preprocessor1_Mode…
 6 0.00000285       0 roc_auc binary     0.608     3 0.00378 Preprocessor1_Mode…
 7 0.00000351       0 roc_auc binary     0.608     3 0.00378 Preprocessor1_Mode…
 8 0.00000433       0 roc_auc binary     0.608     3 0.00378 Preprocessor1_Mode…
 9 0.00000534       0 roc_auc binary     0.608     3 0.00378 Preprocessor1_Mode…
10 0.00000658       0 roc_auc binary     0.608     3 0.00378 Preprocessor1_Mode…
# ℹ 490 more rows
…
rf_tune

# Tuning results
# 3-fold cross-validation 
# A tibble: 3 × 5
  splits                id    .metrics          .notes           .predictions
  <list>                <chr> <list>            <list>           <list>      
1 <split [25146/12573]> Fold1 <tibble [50 × 6]> <tibble [0 × 4]> <tibble>    
2 <split [25146/12573]> Fold2 <tibble [50 × 6]> <tibble [0 × 4]> <tibble>    
3 <split [25146/12573]> Fold3 <tibble [50 × 6]> <tibble [0 × 4]> <tibble>    

collect_metrics(rf_tune)

# A tibble: 50 × 8
    mtry trees .metric  .estimator  mean     n std_err .config              
   <int> <int> <chr>    <chr>      <dbl> <int>   <dbl> <chr>                
 1     1   100 accuracy binary     0.570     3 0.00610 Preprocessor1_Model01
 2     1   100 roc_auc  binary     0.619     3 0.00197 Preprocessor1_Model01
 3     1   200 accuracy binary     0.575     3 0.00620 Preprocessor1_Model02
 4     1   200 roc_auc  binary     0.624     3 0.00210 Preprocessor1_Model02
 5     1   300 accuracy binary     0.573     3 0.00658 Preprocessor1_Model03
 6     1   300 roc_auc  binary     0.626     3 0.00290 Preprocessor1_Model03
 7     1   400 accuracy binary     0.576     3 0.00705 Preprocessor1_Model04
 8     1   400 roc_auc  binary     0.627     3 0.00302 Preprocessor1_Model04
 9     1   500 accuracy binary     0.572     3 0.00598 Preprocessor1_Model05
10     1   500 roc_auc  binary     0.627     3 0.00351 Preprocessor1_Model05
# ℹ 40 more rows
…
rf_tune %>%
  collect_metrics() |>
  print(width = Inf) |>
  filter(.metric == "roc_auc") |>
  ggplot(mapping = aes(x = trees, y = mean, color = factor(mtry))) +
  geom_point() +
  labs(
    title = "Random Forest ROC AUC",
    x = "mtry",
    color = "min_n"
  ) + 
  theme_minimal()

# A tibble: 50 × 8
    mtry trees .metric  .estimator  mean     n std_err .config              
   <int> <int> <chr>    <chr>      <dbl> <int>   <dbl> <chr>                
 1     1   100 accuracy binary     0.570     3 0.00610 Preprocessor1_Model01
 2     1   100 roc_auc  binary     0.619     3 0.00197 Preprocessor1_Model01
 3     1   200 accuracy binary     0.575     3 0.00620 Preprocessor1_Model02
 4     1   200 roc_auc  binary     0.624     3 0.00210 Preprocessor1_Model02
 5     1   300 accuracy binary     0.573     3 0.00658 Preprocessor1_Model03
 6     1   300 roc_auc  binary     0.626     3 0.00290 Preprocessor1_Model03
 7     1   400 accuracy binary     0.576     3 0.00705 Preprocessor1_Model04
 8     1   400 roc_auc  binary     0.627     3 0.00302 Preprocessor1_Model04
 9     1   500 accuracy binary     0.572     3 0.00598 Preprocessor1_Model05
10     1   500 roc_auc  binary     0.627     3 0.00351 Preprocessor1_Model05
# ℹ 40 more rows
…
